,0
acuracia_teste,0.8552
tempo_treinamento,7.16
tempo_teste,0.13
intervalo,"[85.3329437542723, 86.72372291239435]"
tempo_cross,67.45
modelo,"RandomForestClassifier(bootstrap=True, class_weight=None, criterion='gini',
            max_depth=None, max_features='auto', max_leaf_nodes=None,
            min_impurity_decrease=0.0, min_impurity_split=None,
            min_samples_leaf=1, min_samples_split=2,
            min_weight_fraction_leaf=0.0, n_estimators=10, n_jobs=None,
            oob_score=False, random_state=None, verbose=0,
            warm_start=False)"
