,0
acuracia_teste,0.6217
tempo_treinamento,20.08
tempo_teste,0.12
intervalo,"[85.20505360791842, 86.91494639208159]"
tempo_cross,172.25
modelo,"RandomForestClassifier(bootstrap=True, class_weight=None, criterion='gini',
            max_depth=None, max_features='auto', max_leaf_nodes=None,
            min_impurity_decrease=0.0, min_impurity_split=None,
            min_samples_leaf=1, min_samples_split=2,
            min_weight_fraction_leaf=0.0, n_estimators=10, n_jobs=None,
            oob_score=False, random_state=None, verbose=0,
            warm_start=False)"
