,0
acuracia_teste,0.7185
tempo_treinamento,5.36
tempo_teste,0.06
intervalo,"[84.62870163642174, 86.20463169691159]"
tempo_cross,46.19
modelo,"RandomForestClassifier(bootstrap=True, class_weight=None, criterion='gini',
            max_depth=12, max_features='auto', max_leaf_nodes=None,
            min_impurity_decrease=0.0, min_impurity_split=None,
            min_samples_leaf=1, min_samples_split=2,
            min_weight_fraction_leaf=0.0, n_estimators=10, n_jobs=None,
            oob_score=False, random_state=None, verbose=0,
            warm_start=False)"
